<?xml version="1.0" encoding="UTF-16"?>
<!DOCTYPE svg PUBLIC "-//W3C//DTD SVG 1.1//EN" "http://www.w3.org/Graphics/SVG/1.1/DTD/svg11.dtd">
<!-- Creator: CorelDRAW 2020 (64-Bit) -->
<svg xmlns="http://www.w3.org/2000/svg" xml:space="preserve" width="269.234mm" height="67.6148mm" version="1.1" style="shape-rendering:geometricPrecision; text-rendering:geometricPrecision; image-rendering:optimizeQuality; fill-rule:evenodd; clip-rule:evenodd"
viewBox="0 0 7450.55 1871.11"
 xmlns:xlink="http://www.w3.org/1999/xlink"
 xmlns:xodm="http://www.corel.com/coreldraw/odm/2003">
 <defs>
  <font id="FontID0" horiz-adv-x="766" font-variant="normal" style="fill-rule:nonzero" font-weight="700">
	<font-face 
		font-family="Montserrat">
		<font-face-src>
			<font-face-name name="Montserrat Bold"/>
		</font-face-src>
	</font-face>
   <missing-glyph><path d="M0 0z"/></missing-glyph>
   <glyph unicode="F" horiz-adv-x="638" d="M245.001 569.999l0 -184.997 324 0 0 -130.002 -324 0 0 -254.999 -162 0 0 700.001 528.998 0 0 -130.002 -366.999 0z"/>
   <glyph unicode="V" horiz-adv-x="745" d="M756 700.001l-303.001 -700.001 -159.999 0 -302 700.001 175 0 213.001 -500 216 500 160.999 0z"/>
   <glyph unicode="a" horiz-adv-x="616" d="M289 546.001c83.3329,0 147.333,-19.834 191.999,-59.502 44.6683,-39.6652 66.9996,-99.4988 66.9996,-179.498l0 -307 -145.998 0 0 66.9996c-29.3329,-50.0003 -84.0018,-74.999 -164.001,-74.999 -41.3319,0 -77.1675,6.99874 -107.498,20.999 -30.3335,14.0003 -53.5011,33.3326 -69.5026,57.9996 -15.9987,24.6671 -23.9981,52.6677 -23.9981,84.0018 0,49.9974 18.8334,89.331 56.5001,117.998 37.6667,28.6668 95.8336,43.0015 174.501,43.0015l123.999 0c0,33.9987 -10.3323,60.1653 -30.9997,78.4998 -20.6674,18.3345 -51.6671,27.4989 -92.999,27.4989 -28.6668,0 -56.8346,-4.49858 -84.5007,-13.4986 -27.6661,-8.99999 -51.1682,-21.1663 -70.5004,-36.5017l-56.0012 109.001c29.3357,20.6674 64.5023,36.6661 105.5,48.0019 41.0003,11.3329 83.1685,16.9994 126.502,16.9994zm-11.999 -449.002c26.6655,0 50.3319,6.16819 70.9993,18.5017 20.6646,12.3335 35.3338,30.5008 43.9993,54.4989l0 55.0006 -106.999 0c-64.0006,0 -96.0009,-20.999 -96.0009,-63 0,-20.0012 7.83212,-35.8327 23.4992,-47.5001 15.6671,-11.6674 37.1679,-17.5011 64.5023,-17.5011z"/>
   <glyph unicode="c" horiz-adv-x="591" d="M331.999 -7.99937c-57.3335,0 -108.833,11.8318 -154.499,35.4982 -45.6661,23.6664 -81.3344,56.5001 -106.999,98.501 -25.6677,42.0009 -38.5001,89.6655 -38.5001,142.999 0,53.3338 12.8324,101.001 38.5001,143.002 25.6649,41.9981 61.3332,74.8318 106.999,98.4982 45.6661,23.6664 97.1659,35.5011 154.499,35.5011 56.6674,0 106.169,-11.8346 148.501,-35.5011 42.3326,-23.6664 73.165,-57.5008 92.5001,-101.5l-121 -64.9984c-28.0006,49.3313 -68.3348,73.9984 -121,73.9984 -40.6686,0 -74.3357,-13.3342 -101.001,-39.9997 -26.6655,-26.6655 -39.9997,-63 -39.9997,-109.001 0,-46.0006 13.3342,-82.3322 39.9997,-109.001 26.6655,-26.6655 60.3326,-39.9997 101.001,-39.9997 53.331,0 93.6651,24.6671 121,74.0012l121 -65.999c-19.3351,-42.6671 -50.1675,-76.0025 -92.5001,-100.001 -42.3326,-24.0009 -91.834,-36 -148.501,-36z"/>
   <glyph unicode="e" horiz-adv-x="631" d="M599 267.001c0,-2.00126 -1.00063,-16.0016 -2.99905,-42.0009l-407.001 0c7.33322,-33.3326 24.6671,-59.6664 51.9987,-78.9987 27.3345,-19.3351 61.336,-29.0012 102.002,-29.0012 28.0006,0 52.8321,4.16693 74.5001,12.5008 21.6652,8.33385 41.8337,21.4979 60.4998,39.4979l82.9984 -89.9999c-50.6664,-57.9996 -124.665,-86.9981 -221.998,-86.9981 -60.667,0 -114.335,11.8318 -161.002,35.4982 -46.6639,23.6664 -82.6639,56.5001 -108,98.501 -25.3332,42.0009 -37.9984,89.6655 -37.9984,142.999 0,52.6677 12.5008,100.168 37.4995,142.5 25.0016,42.3326 59.3348,75.3335 103,98.9999 43.6677,23.6664 92.5001,35.5011 146.5,35.5011 52.6677,0 100.335,-11.3329 142.999,-34.0016 42.6671,-22.6658 76.1669,-55.165 100.502,-97.5004 24.3326,-42.3326 36.4989,-91.4995 36.4989,-147.498zm-279 160.999c-35.3338,0 -65.0012,-10.0006 -88.9993,-29.999 -24.0009,-20.0012 -38.6674,-47.3357 -44.0022,-82.0006l265.002 0c-5.3348,33.9987 -20.0012,61.1659 -44.0022,81.4988 -23.9981,20.3329 -53.331,30.5008 -87.9987,30.5008z"/>
   <glyph unicode="i" horiz-adv-x="300" d="M72 538.001l155.999 0 0 -538.001 -155.999 0 0 538.001zm78.0009 74.999c-28.6668,0 -52.0015,8.33385 -70.0015,24.9987 -18,16.6677 -27,37.3351 -27,62.0022 0,24.6642 8.99999,45.3316 27,61.9993 18,16.6649 41.3348,24.9987 70.0015,24.9987 28.6668,0 51.9987,-7.99937 69.9987,-23.9981 18,-16.0016 27,-36 27,-60.0009 0,-25.9994 -8.99999,-47.5001 -27,-64.4995 -18,-16.9994 -41.3319,-25.5005 -69.9987,-25.5005z"/>
   <glyph unicode="l" horiz-adv-x="300" d="M72 741.999l155.999 0 0 -741.999 -155.999 0 0 741.999z"/>
   <glyph unicode="u" horiz-adv-x="686" d="M614.001 538.001l0 -538.001 -148 0 0 64.0006c-20.6674,-23.3348 -45.3345,-41.1675 -74.0012,-53.5011 -28.6668,-12.3335 -59.6664,-18.4989 -92.999,-18.4989 -70.6677,0 -126.669,20.3329 -168.001,60.9987 -41.3348,40.6686 -61.9993,101.001 -61.9993,181.001l0 304.001 155.999 0 0 -281.001c0,-86.6664 36.3345,-130 109.001,-130 37.3323,0 67.3341,12.1663 89.9999,36.4989 22.6658,24.3326 33.9987,60.4998 33.9987,108.502l0 266 156.002 0z"/>
  </font>
  <style type="text/css">
   <![CDATA[
    @font-face { font-family:"Montserrat";font-variant:normal;font-weight:bold;src:url("#FontID0") format(svg)}
    .str0 {stroke:#373435;stroke-width:5.53;stroke-miterlimit:22.9256}
    .fil0 {fill:none}
    .fil1 {fill:#FEFEFE}
    .fnt0 {font-weight:bold;font-size:976.25px;font-family:'Montserrat'}
   ]]>
  </style>
 </defs>
 <g id="Capa_x0020_1">
  <metadata id="CorelCorpID_0Corel-Layer"/>
  <path class="fil0 str0" d="M1643.29 1336.31c-61.96,-80.38 -128.71,-137 -177.35,-226.14 -32.95,-60.39 -224.29,-284.15 -222.58,-291.83 1.59,-7.17 177.91,-167.72 198.06,-180.95 39.22,-25.75 86.76,-104.08 125.93,-128.39 32.88,162.81 290.18,858.63 274.57,907.75 -65.3,205.52 -144.68,-10.44 -198.63,-80.43z"/>
  <path class="fil1" d="M614.59 1383.61c33.44,-23.03 76.46,-71.98 111.34,-87.69l62.14 164.72 -50.15 49.99c-20.28,-15.05 -114.18,-107.15 -123.32,-127.02zm-206.98 -301.29l168.85 67.34 -91.29 107.58c-21.58,-15.2 -114.14,-105.83 -122.45,-126.68l44.89 -48.23zm1344.56 -48.03c32.72,-25.56 100.14,-9.37 23.06,68.46 -13.85,-14.52 -22.09,-47.2 -23.06,-68.46zm-66.06 -224.39c12.21,-9.9 17.77,-22.01 39.74,-17.48 63.66,13.14 -20.98,85.22 -21,85.24 -9.18,-17.32 -18.89,-44.81 -18.74,-67.76zm-691.92 -638.76c13.71,-27.52 36.39,-51.33 78.95,-42.12 12.34,30.2 6.46,35.11 -9.42,60.6l-69.53 -18.49zm-466.92 1131.12c9.7,-23.79 262.6,-313.24 289.85,-347.95l445.61 -503.28c76.9,-91.46 225.65,-242.05 319,-313.6 178.84,-137.07 338.99,-112.97 153.66,153.56 -34.36,49.42 -181.2,199.11 -230.53,243.9l-208.52 189.88c-32.59,33.55 -679.54,595.55 -724.83,621.55l-44.25 -44.06zm244.18 -1201.18c16.16,-26.24 48.98,-61.97 80.78,-17.74 -1.01,25.79 -4.62,25.8 -17.53,39.08l-63.25 -21.34zm-371.44 -4.11c29.66,-44.89 35.78,-35.53 95.16,-17.46 129.79,39.5 791.83,231.33 807.73,244.17l-237.78 259.47c-48.52,-28.02 -431.42,-314.83 -502.87,-365.81l-162.23 -120.38zm1400.95 703.27c-5.53,-25.23 -28.44,-49.97 -52.29,-59.01 -35.85,-13.6 -56.92,0.09 -84.61,9.57l-66.35 -227.95c69.43,-80.69 138.95,-119.96 219.63,-255.45 28.75,-48.28 66.78,-110.91 53.29,-180.52 -12.4,-63.99 -71.2,-98.59 -147.61,-83.28 -117.01,23.44 -222.96,127.97 -287.55,186.66 -99.97,90.82 -58.07,94.79 -133.02,71.73 -40.02,-12.31 -149.2,-38.45 -178.49,-55.47 8.84,-32.55 22.66,-48.53 5.4,-87.67 -34.98,-79.29 -129.2,-62 -191.17,31.97l-43.09 -9.22c37.59,-92.21 -35.88,-165.44 -114.28,-125.58 -23.42,11.91 -59.56,59.87 -75.29,64.28 -11.92,3.35 -186.96,-51.09 -211.07,-58.58 -42.95,-13.34 -69.29,-31.56 -97.9,-3.5 -84.51,82.9 -95.95,78.09 -5.73,142.1l476.84 349.1c28.47,20.63 141.02,99.45 157.67,118.88 -8.02,15.15 -379.49,432.62 -405.5,474.33 -57.01,-13.34 -173.26,-76.35 -222.52,-77.47 -21.1,13.27 -38.68,34.66 -55.49,51.44 -16.43,16.4 -41.85,33.65 -46.99,61.35 1.28,18.47 201.18,207.66 217.88,224.36 247.7,247.68 204.21,249.11 292.97,160.58 20.46,-20.4 52,-35.94 36.52,-79.58 -18.66,-52.61 -60.11,-135.86 -70.17,-188.2l239.48 -205.98c33.21,-26.6 213.23,-190.9 235.05,-202.51 9.73,-8.94 17.79,-18.47 41.88,-35.18 11.11,-18.5 47.22,-49.25 65.59,-64.12 31.29,-25.33 174.44,-169.21 198.74,-177.63l257.94 875.42c-19.6,14.06 -12.92,17.67 -39.42,28.92 -13.02,-29.72 -248.73,-345.05 -287.63,-397.25 -52.46,-70.39 -192.04,-260.01 -237.09,-230.18 -6.83,38.6 177.46,241.11 212.76,289.62l252.4 345.16c16,20.97 32.78,52.6 56.35,62.41 29.35,-4.04 87.29,-66.61 100.98,-89.49 -0.9,-74.99 -73.51,-212.94 -79.02,-294.2 156.06,-112.59 39.21,-232.03 -57.02,-182.52l-11.09 -39c27.37,-22.66 93.25,-73.46 79.04,-138.31z"/>
  <path class="fil0" d="M527.27 1302.26l44.25 44.06c45.28,-26 692.24,-588 724.83,-621.55l208.52 -189.88c49.32,-44.79 196.16,-194.48 230.53,-243.9 185.33,-266.53 25.18,-290.63 -153.66,-153.56 -93.35,71.55 -242.1,222.14 -319,313.6l-445.61 503.28c-27.25,34.71 -280.16,324.17 -289.85,347.95z"/>
  <path class="fil0" d="M400.01 96.97l162.23 120.38c71.45,50.97 454.35,337.78 502.87,365.81l237.78 -259.47c-15.89,-12.84 -677.93,-204.67 -807.73,-244.17 -59.38,-18.07 -65.49,-27.44 -95.16,17.46z"/>
  <path class="fil1" d="M1698.79 1631.88c18.94,-30.19 -7.59,-75.39 -60.99,-20.85l-214 214.32c-20.81,30.15 6.65,75.1 60.75,19.08l214.25 -212.55z"/>
  <path class="fil1" d="M250.43 187.03c-4.02,2.13 -244.84,239.2 -248.64,251.15 -7.81,24.61 11.16,39.43 35.35,30.94 1.62,-0.57 245.23,-232.04 249.91,-252.59 6.72,-29.48 -16.79,-39.97 -36.61,-29.5z"/>
  <path class="fil0" d="M614.59 1383.61c9.14,19.87 103.04,111.97 123.32,127.02l50.15 -49.99 -62.14 -164.72c-34.88,15.71 -77.89,64.65 -111.34,87.69z"/>
  <path class="fil0" d="M362.72 1130.55c8.31,20.85 100.87,111.48 122.45,126.68l91.29 -107.58 -168.85 -67.34 -44.89 48.23z"/>
  <path class="fil1" d="M1390.39 1661.35c39.06,11.69 49.64,-9.28 69.3,-29.24 17.73,-18 31.96,-32 49.77,-49.81 18.61,-18.61 108.75,-88.29 63.85,-114.57 -35.79,-5 -44.4,14.59 -63,33.41l-96.73 96.59c-19.24,18.67 -33.32,27.26 -23.2,63.62z"/>
  <path class="fil1" d="M216.13 498.35c38.38,7.29 48.11,-14.49 65.73,-32.36l99.7 -99.47c21.28,-20.94 31.56,-28.35 18.31,-61.92 -39.14,-6.55 -43.93,6.79 -64.36,27.6 -18.7,19.04 -33.56,33.58 -52.71,52.73 -56.44,56.4 -91.72,73.67 -66.68,113.42z"/>
  <path class="fil1" d="M517.08 394.49c-22.42,11.73 -114.17,102.03 -118.09,119.35 -5.7,25.23 17.74,38.54 40.45,28.51 3.98,-1.76 110.78,-97.39 114.05,-120.92 3.45,-24.82 -16.06,-37.58 -36.4,-26.94z"/>
  <path class="fil1" d="M1486.16 1320.67c-34.61,-4.62 -37.32,9.42 -53.63,26.53 -40.38,42.37 -124.66,102.07 -78.38,124.22 29.13,13.94 77.56,-49.04 92.13,-63.61 23.38,-23.39 67.4,-46.19 39.89,-87.14z"/>
  <path class="fil0" d="M994.19 171.13l69.53 18.49c15.88,-25.5 21.76,-30.4 9.42,-60.6 -42.56,-9.21 -65.24,14.59 -78.95,42.12z"/>
  <path class="fil0" d="M1686.11 809.9c-0.15,22.96 9.56,50.45 18.74,67.76 0.02,-0.02 84.65,-72.1 21,-85.24 -21.97,-4.53 -27.52,7.57 -39.74,17.48z"/>
  <path class="fil0" d="M1752.16 1034.29c0.97,21.26 9.21,53.94 23.06,68.46 77.08,-77.83 9.67,-94.03 -23.06,-68.46z"/>
  <path class="fil0" d="M771.45 101.08l63.25 21.34c12.91,-13.27 16.53,-13.29 17.53,-39.08 -31.8,-44.24 -64.62,-8.5 -80.78,17.74z"/>
  <text x="2260.82" y="1237.42"  class="fil1 fnt0">VuelaFacil</text>
 </g>
</svg>
